%YAML 1.1
%TAG !u! tag:unity3d.com,2011:
--- !u!114 &11400000
MonoBehaviour:
  m_ObjectHideFlags: 0
  m_CorrespondingSourceObject: {fileID: 0}
  m_PrefabInstance: {fileID: 0}
  m_PrefabAsset: {fileID: 0}
  m_GameObject: {fileID: 0}
  m_Enabled: 1
  m_EditorHideFlags: 0
  m_Script: {fileID: 11500000, guid: e62f63b771a333a49a734ec5dd48d4b2, type: 3}
  m_Name: Tank
  m_EditorClassIdentifier: 
  _associatedPrefab: {fileID: 1739601575536202, guid: e79f26381a4303d4cbc9d703c703981e, type: 3}
  _objectPrefab: {fileID: 0}
  _initialState: 0
  _shotterPoint: {fileID: 0}
  _health: 300
  _damage: 0
  _mecanicCooldown: 0
  _moveSpeed: 0
  dieClip: {fileID: 0}
