%YAML 1.1
%TAG !u! tag:unity3d.com,2011:
--- !u!114 &11400000
MonoBehaviour:
  m_ObjectHideFlags: 0
  m_CorrespondingSourceObject: {fileID: 0}
  m_PrefabInstance: {fileID: 0}
  m_PrefabAsset: {fileID: 0}
  m_GameObject: {fileID: 0}
  m_Enabled: 1
  m_EditorHideFlags: 0
  m_Script: {fileID: 11500000, guid: e62f63b771a333a49a734ec5dd48d4b2, type: 3}
  m_Name: Zumbie
  m_EditorClassIdentifier: 
  _associatedPrefab: {fileID: 4493914613880827488, guid: 6dc4cf4496348884d8ee27743ae38562, type: 3}
  _objectPrefab: {fileID: 0}
  _initialState: 0
  _shotterPoint: {fileID: 0}
  _health: 500
  _energyCost: 0
  _damage: 10
  _mecanicCooldown: 3
  _moveSpeed: 1
  dieClip: {fileID: 0}
