{
    "name": "GameInput",
    "maps": [
        {
            "name": "Gameplay",
            "id": "d809adda-68f0-4c61-9a2b-0b9cc834305a",
            "actions": [
                {
                    "name": "LeftMouseButton",
                    "type": "Button",
                    "id": "8f0db18b-545e-4eb9-92ef-be4b00eb70c2",
                    "expectedControlType": "Button",
                    "processors": "",
                    "interactions": ""
                },
                {
                    "name": "RightMouseButton",
                    "type": "Button",
                    "id": "4496119c-5ddd-42e4-bf95-b06f26d54b1b",
                    "expectedControlType": "Button",
                    "processors": "",
                    "interactions": ""
                }
            ],
            "bindings": [
                {
                    "name": "",
                    "id": "84dc96aa-bd3a-4942-a95d-09f074b4886a",
                    "path": "<Mouse>/leftButton",
                    "interactions": "",
                    "processors": "",
                    "groups": "",
                    "action": "LeftMouseButton",
                    "isComposite": false,
                    "isPartOfComposite": false
                },
                {
                    "name": "",
                    "id": "2246c964-011d-48f9-9999-ce29a29005f7",
                    "path": "<Mouse>/rightButton",
                    "interactions": "",
                    "processors": "",
                    "groups": "",
                    "action": "RightMouseButton",
                    "isComposite": false,
                    "isPartOfComposite": false
                }
            ]
        }
    ],
    "controlSchemes": []
}