%YAML 1.1
%TAG !u! tag:unity3d.com,2011:
--- !u!114 &11400000
MonoBehaviour:
  m_ObjectHideFlags: 0
  m_CorrespondingSourceObject: {fileID: 0}
  m_PrefabInstance: {fileID: 0}
  m_PrefabAsset: {fileID: 0}
  m_GameObject: {fileID: 0}
  m_Enabled: 1
  m_EditorHideFlags: 0
  m_Script: {fileID: 11500000, guid: 0b8a09a7bfaa3d548b7a8b026fa48120, type: 3}
  m_Name: TurrentCard
  m_EditorClassIdentifier: 
  energyCost: 75
  type: 0
  placeablesData: {fileID: 0}
